denis,denis.rinfret@concordia.ca,555-555-5555,$2b$12$LOG3RSTW/3lBF2IOnTnSUeGTKKpu1zu.8EULSohUzCv6emx5kgPyC
robb,robb@robb.com,444-444-4444,$2b$12$Ei2/vGPeIqNcJb7TdWD0PumMXuoa43P07Gk0dJaIEzIvGIdfQn/J2
abcd,abcd@abcd.com,111-222-3333,$2b$12$QpEr1ZaRF0gjCuornhRMZ.svvuWIX34.qDXfZ3/EAtX0b.zc.MCDK
aaaa,aaaa@aaaa.com,111-222-3333,$2b$12$BYPvOUzghLHEqScYWtll4eaLKj5b2g9Ae0Lva1gdbfUDeD6Rp4c1a
